{
  "appOptions": {
    "serviceName": "payment_service",
    "deliveryType": "http"
  },
  "grpcOptions": {
    "clients": [
      {
        "name": "course_service",
        "port": ":6008",
        "host": "localhost"
      },
      {
        "name": "user_service",
        "port": ":6004",
        "host": "localhost"
      },
      {
        "name": "catalog_service",
        "port": ":6005",
        "host": "localhost"
      }
    ]
  },
  "echoHttpOptions": {
    "name": "payment_service",
    "port": ":3009",
    "development": true,
    "timeout": 30,
    "basePath": "/api/v1",
    "host": "http://localhost",
    "productsPath": "payments",
    "debugHeaders": true,
    "httpClientDebug": true,
    "debugErrorsResponse": true,
    "ignoreLogUrls": ["metrics"]
  },
  "logOptions": {
    "level": "debug",
    "logType": 0,
    "callerEnabled": false
  },
  "gormOptions": {
    "host": "localhost",
    "port": 3309,
    "user": "ctkai",
    "password": 1234567,
    "dbName": "payment-service",
    "sslMode": false
  },
  "rabbitmqOptions": {
    "autoStart": true,
    "rabbitmqHostOptions": {
      "userName": "guest",
      "password": "guest",
      "hostName": "localhost",
      "port": 5672,
      "httpPort": 15672
    }
  }
}
