{
  "appOptions": {
    "serviceName": "catalog_service",
    "deliveryType": "http"
  },
  "grpcOptions": {
    "clients": [
      {
        "name": "user_service",
        "port": ":6004",
        "host": "user-service-srv.kaidemy.svc.cluster.local"
      }
    ],
    "server": {
      "name": "catalog_service",
      "port": ":6005",
      "host": "catalog-service-srv.kaidemy.svc.cluster.local"
    }
  },
  "echoHttpOptions": {
    "name": "catalog_service",
    "port": ":7003",
    "development": true,
    "timeout": 30,
    "basePath": "/api/v1",
    "host": "http://localhost",
    "productsPath": "users",
    "debugHeaders": true,
    "httpClientDebug": true,
    "debugErrorsResponse": true,
    "ignoreLogUrls": ["metrics"]
  },
  "logOptions": {
    "level": "debug",
    "logType": 0,
    "callerEnabled": false
  },
  "gormOptions": {
    "host": "mysql-catalog-service.kaidemy.svc.cluster.local",
    "port": 3306,
    "user": "ctkai",
    "password": 1234567,
    "dbName": "catalog_service",
    "sslMode": false
  },
  "minIoOptions": {
    "endpoint": "localhost:9000",
    "accessKey": "NMuNvW0IEO9tBVPnJD4v",
    "secretKey": "TNBnna7zk7sOjIn5YsB5T3FvxZEaTTRtoZqvDicW"
  },
  "googleOauthOptions": {
    "clientID": "148930819635-mstvqp7ok9qfm6jg4pub82d8b4r4imk6.apps.googleusercontent.com",
    "clientSecret": "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",
    "redirectURL": "http://localhost:3000/api/v1/auth/google/callback"
  },
  "rabbitmqOptions": {
    "autoStart": true,
    "rabbitmqHostOptions": {
      "userName": "guest",
      "password": "guest",
      "hostName": "localhost",
      "port": 5672,
      "httpPort": 15672
    }
  }
}
