module gitlab.com/ctkai01/kaidemy/internal/services/notificationservice

go 1.19

require (
	cloud.google.com/go v0.110.8 // indirect
	cloud.google.com/go/compute v1.23.1 // indirect
	cloud.google.com/go/compute/metadata v0.2.3 // indirect
	cloud.google.com/go/firestore v1.14.0 // indirect
	cloud.google.com/go/iam v1.1.3 // indirect
	cloud.google.com/go/longrunning v0.5.2 // indirect
	cloud.google.com/go/storage v1.34.0 // indirect
	firebase.google.com/go v3.13.0+incompatible // indirect
	github.com/golang/groupcache v0.0.0-20210331224755-41bb18bfe9da // indirect
	github.com/golang/protobuf v1.5.3 // indirect
	github.com/google/s2a-go v0.1.7 // indirect
	github.com/google/uuid v1.4.0 // indirect
	github.com/googleapis/enterprise-certificate-proxy v0.3.2 // indirect
	github.com/googleapis/gax-go/v2 v2.12.0 // indirect
	github.com/stripe/stripe-go/v76 v76.2.0 // indirect
	go.opencensus.io v0.24.0 // indirect
	golang.org/x/crypto v0.14.0 // indirect
	golang.org/x/net v0.17.0 // indirect
	golang.org/x/oauth2 v0.13.0 // indirect
	golang.org/x/sync v0.4.0 // indirect
	golang.org/x/sys v0.13.0 // indirect
	golang.org/x/text v0.13.0 // indirect
	golang.org/x/time v0.3.0 // indirect
	golang.org/x/xerrors v0.0.0-20220907171357-04be3eba64a2 // indirect
	google.golang.org/api v0.149.0 // indirect
	google.golang.org/appengine v1.6.8 // indirect
	google.golang.org/genproto v0.0.0-20231016165738-49dd2c1f3d0b // indirect
	google.golang.org/genproto/googleapis/api v0.0.0-20231016165738-49dd2c1f3d0b // indirect
	google.golang.org/genproto/googleapis/rpc v0.0.0-20231016165738-49dd2c1f3d0b // indirect
	google.golang.org/grpc v1.59.0 // indirect
	google.golang.org/protobuf v1.31.0 // indirect
)
