{
  "appOptions": {
    "serviceName": "notification_service",
    "deliveryType": "http"
  },
  "grpcOptions": {
    "server": {
      "name": "notification_service",
      "port": ":6009",
      "host": "notification-service-srv.kaidemy.svc.cluster.local"
    },
    "clients": [
      {
        "name": "user_service",
        "port": ":6004",
        "host": "user-service-srv.kaidemy.svc.cluster.local"
      },
      {
        "name": "course_service",
        "port": ":6008",
        "host": "course-service-srv.kaidemy.svc.cluster.local"
      }
    ]
  },

  "echoHttpOptions": {
    "name": "notification-service-srv.kaidemy.svc.cluster.local",
    "port": ":7004",
    "development": true,
    "timeout": 30,
    "basePath": "/api/v1",
    "host": "http://localhost",
    "productsPath": "notifications",
    "debugHeaders": true,
    "httpClientDebug": true,
    "debugErrorsResponse": true,
    "ignoreLogUrls": ["metrics"]
  },
  "logOptions": {
    "level": "debug",
    "logType": 0,
    "callerEnabled": false
  },
  "gormOptions": {
    "host": "mysql-notification-service.kaidemy.svc.cluster.local",
    "port": 3306,
    "user": "ctkai",
    "password": 1234567,
    "dbName": "notification_service",
    "sslMode": false
  },
  "rabbitmqOptions": {
    "autoStart": true,
    "rabbitmqHostOptions": {
      "userName": "djuepzkm",
      "password": "9vQTBuEJqeIhpjBofzqHV5T5huv9rvgQ",
      "hostName": "whale.rmq.cloudamqp.com",
      "port": 5672,
      "httpPort": 15672
    }
  }
}
