{
  "appOptions": {
    "serviceName": "courser_service",
    "deliveryType": "http"
  },
 
  "grpcOptions": {
    "server": {
      "name": "course_service",
      "port": ":6008",
      "host": "localhost"
    },
    "clients": [
      {
        "name": "user_service",
        "port": ":6004",
        "host": "localhost"
      },
      {
        "name": "catalog_service",
        "port": ":6005",
        "host": "localhost"
      },
      {
        "name": "upload_service",
        "port": ":6006",
        "host": "localhost"
      }
    ]
  },
  "echoHttpOptions": {
    "name": "courser_service",
    "port": ":7002",
    "development": true,
    "timeout": 30,
    "basePath": "/api/v1",
    "host": "http://localhost",
    "productsPath": "users",
    "debugHeaders": true,
    "httpClientDebug": true,
    "debugErrorsResponse": true,
    "ignoreLogUrls": ["metrics"]
  },
  "logOptions": {
    "level": "debug",
    "logType": 0,
    "callerEnabled": false
  },
  "gormOptions": {
    "host": "localhost",
    "port": 3307,
    "user": "ctkai",
    "password": 1234567,
    "dbName": "course-service",
    "sslMode": false
  },
  "minIoOptions": {
    "endpoint": "localhost:9000",
    "accessKey": "NMuNvW0IEO9tBVPnJD4v",
    "secretKey": "TNBnna7zk7sOjIn5YsB5T3FvxZEaTTRtoZqvDicW"
  },
  "googleOauthOptions": {
    "clientID": "148930819635-mstvqp7ok9qfm6jg4pub82d8b4r4imk6.apps.googleusercontent.com",
    "clientSecret": "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",
    "redirectURL": "http://localhost:3000/api/v1/auth/google/callback"
  },
  "rabbitmqOptions": {
    "autoStart": true,
    "rabbitmqHostOptions": {
      "userName": "guest",
      "password": "guest",
      "hostName": "localhost",
      "port": 5672,
      "httpPort": 15672
    }
  },
  "redisOptions": {
    "host": "localhost",
    "port": 6379,
    "password": "",
    "database": 0,
    "poolSize": 300
  },
  "mongoDbOptions": {
    "host": "localhost",
    "port": 27017,
    "user": "admin",
    "password": "admin",
    "database": "catalogs_service",
    "useAuth": true
  },
  "OpenTelemetryOptions": {
    "enable": true,
    "serviceName": "catalogs-read-service",
    "instrumentationName": "github.com/mehdihadeli/go-ecommerce-microservices/internal/services/catalogreadservice",
    "id": 1,
    "alwaysOnSampler": true,
    "jaegerExporterOptions": {
      "agentHost": "localhost",
      "agentPort": "6831"
    },
    "otelMetricsOptions": {
      "port": ":1003",
      "metricsRoutePath": "/metrics",
      "name": "catalogs-read-service"
    }
  },
  "elasticOptions": {
    "url": "http://localhost:9200",
    "sniff": false,
    "gzip": true,
    "explain": true,
    "fetchSource": true,
    "version": true,
    "pretty": true
  },
  "elasticIndexes": {
    "products": "products"
  },
  "eventStoreDbOptions": {
    "connectionString": "esdb://localhost:2113?tls=false"
  }
}
